Lab3/lab3/ex5/waves.vcd
$date
    Dec 11, 2018  20:49:39
$end
$version
    TOOL:	ncsim(64)	14.10-s021
$end
$timescale
    1 ns
$end

$scope module addsub_tb $end
$var reg       1 !    mode  $end
$var reg       4 "    operand_a [3:0] $end
$var reg       4 #    operand_b [3:0] $end
$var wire      1 $    result [3] $end
$var wire      1 %    result [2] $end
$var wire      1 &    result [1] $end
$var wire      1 '    result [0] $end
$var wire      1 (    co  $end
$var integer  32 )    a  $end
$var integer  32 *    b  $end
$var integer  32 +    expect  $end
$var integer  32 ,    error_num  $end
$var integer  32 -    t  $end
$var reg       1 .    overflow  $end
$var wire      4 /    expect_out [3:0] $end

$scope module addsub_1 $end
$var wire      1 0    operand_a [3] $end
$var wire      1 1    operand_a [2] $end
$var wire      1 2    operand_a [1] $end
$var wire      1 3    operand_a [0] $end
$var wire      1 4    operand_b [3] $end
$var wire      1 5    operand_b [2] $end
$var wire      1 6    operand_b [1] $end
$var wire      1 7    operand_b [0] $end
$var wire      1 8    mode  $end
$var wire      1 $    result [3] $end
$var wire      1 %    result [2] $end
$var wire      1 &    result [1] $end
$var wire      1 '    result [0] $end
$var wire      1 9    co  $end
$var wire      1 :    xor_b [3] $end
$var wire      1 ;    xor_b [2] $end
$var wire      1 <    xor_b [1] $end
$var wire      1 =    xor_b [0] $end

$scope module m1 $end
$var wire      1 0    a [3] $end
$var wire      1 1    a [2] $end
$var wire      1 2    a [1] $end
$var wire      1 3    a [0] $end
$var wire      1 :    b [3] $end
$var wire      1 ;    b [2] $end
$var wire      1 <    b [1] $end
$var wire      1 =    b [0] $end
$var wire      1 8    ci  $end
$var wire      1 $    sum [3] $end
$var wire      1 %    sum [2] $end
$var wire      1 &    sum [1] $end
$var wire      1 '    sum [0] $end
$var wire      1 9    co  $end
$var wire      1 >    cin2  $end
$var wire      1 ?    cin3  $end
$var wire      1 @    cin4  $end

$scope module fAdd1 $end
$var wire      1 3    a  $end
$var wire      1 =    b  $end
$var wire      1 8    ci  $end
$var wire      1 '    sum  $end
$var wire      1 >    co  $end
$var wire      1 A    hadd1_sum  $end
$var wire      1 B    hadd1_co  $end
$var wire      1 C    hadd2_sum  $end
$var wire      1 D    hadd2_co  $end

$scope module hadd1 $end
$var wire      1 3    a  $end
$var wire      1 =    b  $end
$var wire      1 A    sum  $end
$var wire      1 B    carry  $end
$upscope $end


$scope module hadd2 $end
$var wire      1 8    a  $end
$var wire      1 A    b  $end
$var wire      1 C    sum  $end
$var wire      1 D    carry  $end
$upscope $end

$upscope $end


$scope module fAdd2 $end
$var wire      1 2    a  $end
$var wire      1 <    b  $end
$var wire      1 >    ci  $end
$var wire      1 &    sum  $end
$var wire      1 ?    co  $end
$var wire      1 E    hadd1_sum  $end
$var wire      1 F    hadd1_co  $end
$var wire      1 G    hadd2_sum  $end
$var wire      1 H    hadd2_co  $end

$scope module hadd1 $end
$var wire      1 2    a  $end
$var wire      1 <    b  $end
$var wire      1 E    sum  $end
$var wire      1 F    carry  $end
$upscope $end


$scope module hadd2 $end
$var wire      1 >    a  $end
$var wire      1 E    b  $end
$var wire      1 G    sum  $end
$var wire      1 H    carry  $end
$upscope $end

$upscope $end


$scope module fAdd3 $end
$var wire      1 1    a  $end
$var wire      1 ;    b  $end
$var wire      1 ?    ci  $end
$var wire      1 %    sum  $end
$var wire      1 @    co  $end
$var wire      1 I    hadd1_sum  $end
$var wire      1 J    hadd1_co  $end
$var wire      1 K    hadd2_sum  $end
$var wire      1 L    hadd2_co  $end

$scope module hadd1 $end
$var wire      1 1    a  $end
$var wire      1 ;    b  $end
$var wire      1 I    sum  $end
$var wire      1 J    carry  $end
$upscope $end


$scope module hadd2 $end
$var wire      1 ?    a  $end
$var wire      1 I    b  $end
$var wire      1 K    sum  $end
$var wire      1 L    carry  $end
$upscope $end

$upscope $end


$scope module fAdd4 $end
$var wire      1 0    a  $end
$var wire      1 :    b  $end
$var wire      1 @    ci  $end
$var wire      1 $    sum  $end
$var wire      1 9    co  $end
$var wire      1 M    hadd1_sum  $end
$var wire      1 N    hadd1_co  $end
$var wire      1 O    hadd2_sum  $end
$var wire      1 P    hadd2_co  $end

$scope module hadd1 $end
$var wire      1 0    a  $end
$var wire      1 :    b  $end
$var wire      1 M    sum  $end
$var wire      1 N    carry  $end
$upscope $end


$scope module hadd2 $end
$var wire      1 @    a  $end
$var wire      1 M    b  $end
$var wire      1 O    sum  $end
$var wire      1 P    carry  $end
$upscope $end

$upscope $end

$upscope $end

$upscope $end

$upscope $end

$enddefinitions $end
$dumpvars
x!
bx "
bx #
x$
x%
x&
x'
z(
bx )
bx *
bx +
b0 ,
bx -
x.
bx /
x0
x1
x2
x3
x4
x5
x6
x7
x8
x9
x:
x;
x<
x=
x>
x?
x@
xA
xB
xC
xD
xE
xF
xG
xH
xI
xJ
xK
xL
xM
xN
xO
xP
$end
#10
1!
b11111111111111111111111111111000 )
b11111111111111111111111111111000 *
b1000 "
b1000 #
b0 +
b0 /
14
05
06
07
10
01
02
03
18
0:
1;
1<
1=
0B
0F
0J
1A
1E
1I
1M
0N
0C
1D
1>
0'
0G
1H
1?
0&
0K
1L
1@
0%
0O
1P
19
0$
#11
0.
#12
b11111111111111111111111111111001 *
b1001 #
b11111111111111111111111111111111 +
b1111 /
17
0=
0A
1C
0D
0>
1'
1G
0H
0?
1&
1K
0L
0@
1%
1O
0P
09
1$
#14
b11111111111111111111111111111010 *
b1010 #
b11111111111111111111111111111110 +
b1110 /
16
07
1=
0<
0E
1A
0C
1D
1G
1&
1>
0'
#16
b11111111111111111111111111111011 *
b1011 #
b11111111111111111111111111111101 +
b1101 /
17
0=
0A
1C
0D
0>
1'
0G
0&
#18
b11111111111111111111111111111100 *
b1100 #
b11111111111111111111111111111100 +
b1100 /
15
06
07
1=
1<
0;
0I
1E
1A
0C
1D
0G
1K
1%
0&
1>
0'
1H
1?
#20
b11111111111111111111111111111101 *
b1101 #
b11111111111111111111111111111011 +
b1011 /
17
0=
0A
1C
0D
0>
1'
1G
0H
0?
1&
0K
0%
#22
b11111111111111111111111111111110 *
b1110 #
b11111111111111111111111111111010 +
b1010 /
16
07
1=
0<
0E
1A
0C
1D
1G
1&
1>
0'
#24
b11111111111111111111111111111111 *
b1111 #
b11111111111111111111111111111001 +
b1001 /
17
0=
0A
1C
0D
0>
1'
0G
0&
#26
b0 *
b0 #
b11111111111111111111111111111000 +
b1000 /
04
05
06
07
1=
1<
1;
1:
0M
1N
1I
1E
1A
0C
1D
0G
0K
19
1O
1$
0%
0&
1>
0'
1H
1?
1L
1@
#28
b1 *
b1 #
b11111111111111111111111111110111 +
b111 /
17
0=
0A
1C
0D
0>
1'
1G
0H
0?
1&
1K
0L
0@
1%
0O
0$
#29
1.
#30
b10 *
b10 #
b11111111111111111111111111110110 +
b110 /
16
07
1=
0<
0E
1A
0C
1D
1G
1&
1>
0'
#32
b11 *
b11 #
b11111111111111111111111111110101 +
b101 /
17
0=
0A
1C
0D
0>
1'
0G
0&
#34
b100 *
b100 #
b11111111111111111111111111110100 +
b100 /
15
06
07
1=
1<
0;
0I
1E
1A
0C
1D
0G
1K
1%
0&
1>
0'
1H
1?
#36
b101 *
b101 #
b11111111111111111111111111110011 +
b11 /
17
0=
0A
1C
0D
0>
1'
1G
0H
0?
1&
0K
0%
#38
b110 *
b110 #
b11111111111111111111111111110010 +
b10 /
16
07
1=
0<
0E
1A
0C
1D
1G
1&
1>
0'
#40
b111 *
b111 #
b11111111111111111111111111110001 +
b1 /
17
0=
0A
1C
0D
0>
1'
0G
0&
#42
b1000 *
b11111111111111111111111111111001 )
b11111111111111111111111111111000 *
b1001 "
b1000 #
b1 +
14
05
06
07
13
0A
1=
1<
1;
0:
1M
0N
1I
1E
1B
1>
0K
19
0O
0$
0%
1H
1?
1L
1@
1P
#43
0.
#44
b11111111111111111111111111111001 *
b1001 #
b0 +
b0 /
17
0=
1A
0B
1>
0C
1D
0'
#46
b11111111111111111111111111111010 *
b1010 #
b11111111111111111111111111111111 +
b1111 /
16
07
1=
0<
0E
0A
1B
1C
0D
1G
0H
0?
1&
1'
1K
0L
0@
1%
1O
0P
09
1$
#48
b11111111111111111111111111111011 *
b1011 #
b11111111111111111111111111111110 +
b1110 /
17
0=
1A
0B
1>
0C
1D
0'
#50
b11111111111111111111111111111100 *
b1100 #
b11111111111111111111111111111101 +
b1101 /
15
06
07
1=
1<
0;
0I
1E
0A
1B
1C
0D
0G
1H
1K
1%
1?
0&
1'
#52
b11111111111111111111111111111101 *
b1101 #
b11111111111111111111111111111100 +
b1100 /
17
0=
1A
0B
1>
0C
1D
0'
#54
b11111111111111111111111111111110 *
b1110 #
b11111111111111111111111111111011 +
b1011 /
16
07
1=
0<
0E
0A
1B
1C
0D
1G
0H
0?
1&
1'
0K
0%
#56
b11111111111111111111111111111111 *
b1111 #
b11111111111111111111111111111010 +
b1010 /
17
0=
1A
0B
1>
0C
1D
0'
#58
b0 *
b0 #
b11111111111111111111111111111001 +
b1001 /
04
05
06
07
1=
1<
1;
1:
0M
1N
1I
1E
0A
1B
1C
0D
0G
1H
0K
19
1O
1$
0%
1?
0&
1'
1L
1@
#60
b1 *
b1 #
b11111111111111111111111111111000 +
b1000 /
17
0=
1A
0B
1>
0C
1D
0'
#62
b10 *
b10 #
b11111111111111111111111111110111 +
b111 /
16
07
1=
0<
0E
0A
1B
1C
0D
1G
0H
0?
1&
1'
1K
0L
0@
1%
0O
0$
#63
1.
#64
b11 *
b11 #
b11111111111111111111111111110110 +
b110 /
17
0=
1A
0B
1>
0C
1D
0'
#66
b100 *
b100 #
b11111111111111111111111111110101 +
b101 /
15
06
07
1=
1<
0;
0I
1E
0A
1B
1C
0D
0G
1H
1K
1%
1?
0&
1'
#68
b101 *
b101 #
b11111111111111111111111111110100 +
b100 /
17
0=
1A
0B
1>
0C
1D
0'
#70
b110 *
b110 #
b11111111111111111111111111110011 +
b11 /
16
07
1=
0<
0E
0A
1B
1C
0D
1G
0H
0?
1&
1'
0K
0%
#72
b111 *
b111 #
b11111111111111111111111111110010 +
b10 /
17
0=
1A
0B
1>
0C
1D
0'
#74
b1000 *
b11111111111111111111111111111010 )
b11111111111111111111111111111000 *
b1010 "
b1000 #
b10 +
14
05
06
07
12
03
1A
0E
1=
1<
1;
0:
1M
0N
1I
1F
1?
19
0O
0$
1L
1@
1P
#75
0.
#76
b11111111111111111111111111111001 *
b1001 #
b1 +
b1 /
17
0=
0A
1C
0D
0>
1'
0G
0&
#78
b11111111111111111111111111111010 *
b1010 #
b0 +
b0 /
16
07
1=
0<
1E
0F
1A
0C
1D
1?
0G
0&
0K
1L
1>
0'
1H
1@
0%
0O
1P
19
0$
#80
b11111111111111111111111111111011 *
b1011 #
b11111111111111111111111111111111 +
b1111 /
17
0=
0A
1C
0D
0>
1'
1G
0H
0?
1&
1K
0L
0@
1%
1O
0P
09
1$
#82
b11111111111111111111111111111100 *
b1100 #
b11111111111111111111111111111110 +
b1110 /
15
06
07
1=
1<
0;
0I
0E
1F
1A
0C
1D
1?
1G
1&
1>
0'
#84
b11111111111111111111111111111101 *
b1101 #
b11111111111111111111111111111101 +
b1101 /
17
0=
0A
1C
0D
0>
1'
0G
0&
#86
b11111111111111111111111111111110 *
b1110 #
b11111111111111111111111111111100 +
b1100 /
16
07
1=
0<
1E
0F
1A
0C
1D
1?
0G
0&
1K
1>
0'
1H
1%
#88
b11111111111111111111111111111111 *
b1111 #
b11111111111111111111111111111011 +
b1011 /
17
0=
0A
1C
0D
0>
1'
1G
0H
0?
1&
0K
0%
#90
b0 *
b0 #
b11111111111111111111111111111010 +
b1010 /
04
05
06
07
1=
1<
1;
1:
0M
1N
1I
0E
1F
1A
0C
1D
1?
1G
19
1O
1$
1&
1L
1>
0'
1@
#92
b1 *
b1 #
b11111111111111111111111111111001 +
b1001 /
17
0=
0A
1C
0D
0>
1'
0G
0&
#94
b10 *
b10 #
b11111111111111111111111111111000 +
b1000 /
16
07
1=
0<
1E
0F
1A
0C
1D
1?
0G
0&
0K
1L
1>
0'
1H
1@
0%
1O
1$
#96
b11 *
b11 #
b11111111111111111111111111110111 +
b111 /
17
0=
0A
1C
0D
0>
1'
1G
0H
0?
1&
1K
0L
0@
1%
0O
0$
#97
1.
#98
b100 *
b100 #
b11111111111111111111111111110110 +
b110 /
15
06
07
1=
1<
0;
0I
0E
1F
1A
0C
1D
1?
1G
1&
1>
0'
#100
b101 *
b101 #
b11111111111111111111111111110101 +
b101 /
17
0=
0A
1C
0D
0>
1'
0G
0&
#102
b110 *
b110 #
b11111111111111111111111111110100 +
b100 /
16
07
1=
0<
1E
0F
1A
0C
1D
1?
0G
0&
1K
1>
0'
1H
1%
#104
b111 *
b111 #
b11111111111111111111111111110011 +
b11 /
17
0=
0A
1C
0D
0>
1'
1G
0H
0?
1&
0K
0%
#106
b1000 *
b11111111111111111111111111111011 )
b11111111111111111111111111111000 *
b1011 "
b1000 #
b11 +
14
05
06
07
13
0A
1=
1<
1;
0:
1M
0N
1I
0E
1F
1B
1>
1?
19
0O
0$
1L
1@
1P
#107
0.
#108
b11111111111111111111111111111001 *
b1001 #
b10 +
b10 /
17
0=
1A
0B
1>
0C
1D
0'
#110
b11111111111111111111111111111010 *
b1010 #
b1 +
b1 /
16
07
1=
0<
1E
0F
0A
1B
1C
0D
1?
0G
1H
0&
1'
#112
b11111111111111111111111111111011 *
b1011 #
b0 +
b0 /
17
0=
1A
0B
1>
0C
1D
0'
#114
b11111111111111111111111111111100 *
b1100 #
b11111111111111111111111111111111 +
b1111 /
15
06
07
1=
1<
0;
0I
0E
1F
0A
1B
1C
0D
1G
0H
1K
0L
0@
1%
1&
1'
1O
0P
09
1$
#116
b11111111111111111111111111111101 *
b1101 #
b11111111111111111111111111111110 +
b1110 /
17
0=
1A
0B
1>
0C
1D
0'
#118
b11111111111111111111111111111110 *
b1110 #
b11111111111111111111111111111101 +
b1101 /
16
07
1=
0<
1E
0F
0A
1B
1C
0D
1?
0G
1H
0&
1'
#120
b11111111111111111111111111111111 *
b1111 #
b11111111111111111111111111111100 +
b1100 /
17
0=
1A
0B
1>
0C
1D
0'
#122
b0 *
b0 #
b11111111111111111111111111111011 +
b1011 /
04
05
06
07
1=
1<
1;
1:
0M
1N
1I
0E
1F
0A
1B
1C
0D
1G
0H
0K
1L
19
1O
1$
1@
0%
1&
1'
#124
b1 *
b1 #
b11111111111111111111111111111010 +
b1010 /
17
0=
1A
0B
1>
0C
1D
0'
#126
b10 *
b10 #
b11111111111111111111111111111001 +
b1001 /
16
07
1=
0<
1E
0F
0A
1B
1C
0D
1?
0G
1H
0&
1'
#128
b11 *
b11 #
b11111111111111111111111111111000 +
b1000 /
17
0=
1A
0B
1>
0C
1D
0'
#130
b100 *
b100 #
b11111111111111111111111111110111 +
b111 /
15
06
07
1=
1<
0;
0I
0E
1F
0A
1B
1C
0D
1G
0H
1K
0L
0@
1%
1&
1'
0O
0$
#131
1.
#132
b101 *
b101 #
b11111111111111111111111111110110 +
b110 /
17
0=
1A
0B
1>
0C
1D
0'
#134
b110 *
b110 #
b11111111111111111111111111110101 +
b101 /
16
07
1=
0<
1E
0F
0A
1B
1C
0D
1?
0G
1H
0&
1'
#136
b111 *
b111 #
b11111111111111111111111111110100 +
b100 /
17
0=
1A
0B
1>
0C
1D
0'
#138
b1000 *
b11111111111111111111111111111100 )
b11111111111111111111111111111000 *
b1100 "
b1000 #
b100 +
14
05
06
07
11
02
03
1A
1E
0I
1=
1<
1;
0:
1M
0N
1J
1@
19
1P
#139
0.
#140
b11111111111111111111111111111001 *
b1001 #
b11 +
b11 /
17
0=
0A
1C
0D
0>
1'
1G
0H
0?
1&
0K
0%
#142
b11111111111111111111111111111010 *
b1010 #
b10 +
b10 /
16
07
1=
0<
0E
1A
0C
1D
1G
1&
1>
0'
#144
b11111111111111111111111111111011 *
b1011 #
b1 +
b1 /
17
0=
0A
1C
0D
0>
1'
0G
0&
#146
b11111111111111111111111111111100 *
b1100 #
b0 +
b0 /
15
06
07
1=
1<
0;
1I
0J
1E
1A
0C
1D
0G
1@
0K
0%
0O
1P
0&
1>
0'
1H
19
0$
1?
1L
#148
b11111111111111111111111111111101 *
b1101 #
b11111111111111111111111111111111 +
b1111 /
17
0=
0A
1C
0D
0>
1'
1G
0H
0?
1&
1K
0L
0@
1%
1O
0P
09
1$
#150
b11111111111111111111111111111110 *
b1110 #
b11111111111111111111111111111110 +
b1110 /
16
07
1=
0<
0E
1A
0C
1D
1G
1&
1>
0'
#152
b11111111111111111111111111111111 *
b1111 #
b11111111111111111111111111111101 +
b1101 /
17
0=
0A
1C
0D
0>
1'
0G
0&
#154
b0 *
b0 #
b11111111111111111111111111111100 +
b1100 /
04
05
06
07
1=
1<
1;
1:
0M
1N
0I
1J
1E
1A
0C
1D
0G
1@
1K
19
1%
0&
1>
0'
1H
1?
#156
b1 *
b1 #
b11111111111111111111111111111011 +
b1011 /
17
0=
0A
1C
0D
0>
1'
1G
0H
0?
1&
0K
0%
#158
b10 *
b10 #
b11111111111111111111111111111010 +
b1010 /
16
07
1=
0<
0E
1A
0C
1D
1G
1&
1>
0'
#160
b11 *
b11 #
b11111111111111111111111111111001 +
b1001 /
17
0=
0A
1C
0D
0>
1'
0G
0&
#162
b100 *
b100 #
b11111111111111111111111111111000 +
b1000 /
15
06
07
1=
1<
0;
1I
0J
1E
1A
0C
1D
0G
1@
0K
0%
1O
0&
1>
0'
1H
1$
1?
1L
#164
b101 *
b101 #
b11111111111111111111111111110111 +
b111 /
17
0=
0A
1C
0D
0>
1'
1G
0H
0?
1&
1K
0L
0@
1%
0O
0$
#165
1.
#166
b110 *
b110 #
b11111111111111111111111111110110 +
b110 /
16
07
1=
0<
0E
1A
0C
1D
1G
1&
1>
0'
#168
b111 *
b111 #
b11111111111111111111111111110101 +
b101 /
17
0=
0A
1C
0D
0>
1'
0G
0&
#170
b1000 *
b11111111111111111111111111111101 )
b11111111111111111111111111111000 *
b1101 "
b1000 #
b101 +
14
05
06
07
13
0A
1=
1<
1;
0:
1M
0N
0I
1J
1E
1B
1>
1@
1K
19
1%
1P
1H
1?
#171
0.
#172
b11111111111111111111111111111001 *
b1001 #
b100 +
b100 /
17
0=
1A
0B
1>
0C
1D
0'
#174
b11111111111111111111111111111010 *
b1010 #
b11 +
b11 /
16
07
1=
0<
0E
0A
1B
1C
0D
1G
0H
0?
1&
1'
0K
0%
#176
b11111111111111111111111111111011 *
b1011 #
b10 +
b10 /
17
0=
1A
0B
1>
0C
1D
0'
#178
b11111111111111111111111111111100 *
b1100 #
b1 +
b1 /
15
06
07
1=
1<
0;
1I
0J
1E
0A
1B
1C
0D
0G
1H
1@
0K
0%
0O
1P
1?
0&
1'
1L
19
0$
#180
b11111111111111111111111111111101 *
b1101 #
b0 +
b0 /
17
0=
1A
0B
1>
0C
1D
0'
#182
b11111111111111111111111111111110 *
b1110 #
b11111111111111111111111111111111 +
b1111 /
16
07
1=
0<
0E
0A
1B
1C
0D
1G
0H
0?
1&
1'
1K
0L
0@
1%
1O
0P
09
1$
#184
b11111111111111111111111111111111 *
b1111 #
b11111111111111111111111111111110 +
b1110 /
17
0=
1A
0B
1>
0C
1D
0'
#186
b0 *
b0 #
b11111111111111111111111111111101 +
b1101 /
04
05
06
07
1=
1<
1;
1:
0M
1N
0I
1J
1E
0A
1B
1C
0D
0G
1H
1@
1K
19
1%
1?
0&
1'
#188
b1 *
b1 #
b11111111111111111111111111111100 +
b1100 /
17
0=
1A
0B
1>
0C
1D
0'
#190
b10 *
b10 #
b11111111111111111111111111111011 +
b1011 /
16
07
1=
0<
0E
0A
1B
1C
0D
1G
0H
0?
1&
1'
0K
0%
#192
b11 *
b11 #
b11111111111111111111111111111010 +
b1010 /
17
0=
1A
0B
1>
0C
1D
0'
#194
b100 *
b100 #
b11111111111111111111111111111001 +
b1001 /
15
06
07
1=
1<
0;
1I
0J
1E
0A
1B
1C
0D
0G
1H
1@
0K
0%
1O
1?
0&
1'
1L
1$
#196
b101 *
b101 #
b11111111111111111111111111111000 +
b1000 /
17
0=
1A
0B
1>
0C
1D
0'
#198
b110 *
b110 #
b11111111111111111111111111110111 +
b111 /
16
07
1=
0<
0E
0A
1B
1C
0D
1G
0H
0?
1&
1'
1K
0L
0@
1%
0O
0$
#199
1.
#200
b111 *
b111 #
b11111111111111111111111111110110 +
b110 /
17
0=
1A
0B
1>
0C
1D
0'
#202
b1000 *
b11111111111111111111111111111110 )
b11111111111111111111111111111000 *
b1110 "
b1000 #
b110 +
14
05
06
07
12
03
1A
0E
1=
1<
1;
0:
1M
0N
0I
1J
1F
1?
1@
19
1P
#203
0.
#204
b11111111111111111111111111111001 *
b1001 #
b101 +
b101 /
17
0=
0A
1C
0D
0>
1'
0G
0&
#206
b11111111111111111111111111111010 *
b1010 #
b100 +
b100 /
16
07
1=
0<
1E
0F
1A
0C
1D
1?
0G
0&
1K
1>
0'
1H
1%
#208
b11111111111111111111111111111011 *
b1011 #
b11 +
b11 /
17
0=
0A
1C
0D
0>
1'
1G
0H
0?
1&
0K
0%
#210
b11111111111111111111111111111100 *
b1100 #
b10 +
b10 /
15
06
07
1=
1<
0;
1I
0J
0E
1F
1A
0C
1D
1?
1G
1@
0O
1P
1&
1L
1>
0'
19
0$
#212
b11111111111111111111111111111101 *
b1101 #
b1 +
b1 /
17
0=
0A
1C
0D
0>
1'
0G
0&
#214
b11111111111111111111111111111110 *
b1110 #
b0 +
b0 /
16
07
1=
0<
1E
0F
1A
0C
1D
1?
0G
0&
0K
1L
1>
0'
1H
1@
0%
0O
1P
19
0$
#216
b11111111111111111111111111111111 *
b1111 #
b11111111111111111111111111111111 +
b1111 /
17
0=
0A
1C
0D
0>
1'
1G
0H
0?
1&
1K
0L
0@
1%
1O
0P
09
1$
#218
b0 *
b0 #
b11111111111111111111111111111110 +
b1110 /
04
05
06
07
1=
1<
1;
1:
0M
1N
0I
1J
0E
1F
1A
0C
1D
1?
1G
1@
19
1&
1>
0'
#220
b1 *
b1 #
b11111111111111111111111111111101 +
b1101 /
17
0=
0A
1C
0D
0>
1'
0G
0&
#222
b10 *
b10 #
b11111111111111111111111111111100 +
b1100 /
16
07
1=
0<
1E
0F
1A
0C
1D
1?
0G
0&
1K
1>
0'
1H
1%
#224
b11 *
b11 #
b11111111111111111111111111111011 +
b1011 /
17
0=
0A
1C
0D
0>
1'
1G
0H
0?
1&
0K
0%
#226
b100 *
b100 #
b11111111111111111111111111111010 +
b1010 /
15
06
07
1=
1<
0;
1I
0J
0E
1F
1A
0C
1D
1?
1G
1@
1O
1&
1L
1>
0'
1$
#228
b101 *
b101 #
b11111111111111111111111111111001 +
b1001 /
17
0=
0A
1C
0D
0>
1'
0G
0&
#230
b110 *
b110 #
b11111111111111111111111111111000 +
b1000 /
16
07
1=
0<
1E
0F
1A
0C
1D
1?
0G
0&
0K
1L
1>
0'
1H
1@
0%
1O
1$
#232
b111 *
b111 #
b11111111111111111111111111110111 +
b111 /
17
0=
0A
1C
0D
0>
1'
1G
0H
0?
1&
1K
0L
0@
1%
0O
0$
#233
1.
#234
b1000 *
b11111111111111111111111111111111 )
b11111111111111111111111111111000 *
b1111 "
b1000 #
b111 +
14
05
06
07
13
0A
1=
1<
1;
0:
1M
0N
0I
1J
0E
1F
1B
1>
1?
1@
19
1P
#235
0.
#236
b11111111111111111111111111111001 *
b1001 #
b110 +
b110 /
17
0=
1A
0B
1>
0C
1D
0'
#238
b11111111111111111111111111111010 *
b1010 #
b101 +
b101 /
16
07
1=
0<
1E
0F
0A
1B
1C
0D
1?
0G
1H
0&
1'
#240
b11111111111111111111111111111011 *
b1011 #
b100 +
b100 /
17
0=
1A
0B
1>
0C
1D
0'
#242
b11111111111111111111111111111100 *
b1100 #
b11 +
b11 /
15
06
07
1=
1<
0;
1I
0J
0E
1F
0A
1B
1C
0D
1G
0H
1@
0K
1L
0%
1&
1'
#244
b11111111111111111111111111111101 *
b1101 #
b10 +
b10 /
17
0=
1A
0B
1>
0C
1D
0'
#246
b11111111111111111111111111111110 *
b1110 #
b1 +
b1 /
16
07
1=
0<
1E
0F
0A
1B
1C
0D
1?
0G
1H
0&
1'
#248
b11111111111111111111111111111111 *
b1111 #
b0 +
b0 /
17
0=
1A
0B
1>
0C
1D
0'
#250
b0 *
b0 #
b11111111111111111111111111111111 +
b1111 /
04
05
06
07
1=
1<
1;
1:
0M
1N
0I
1J
0E
1F
0A
1B
1C
0D
1G
0H
1K
0L
1O
0P
1$
1%
1&
1'
#252
b1 *
b1 #
b11111111111111111111111111111110 +
b1110 /
17
0=
1A
0B
1>
0C
1D
0'
#254
b10 *
b10 #
b11111111111111111111111111111101 +
b1101 /
16
07
1=
0<
1E
0F
0A
1B
1C
0D
1?
0G
1H
0&
1'
#256
b11 *
b11 #
b11111111111111111111111111111100 +
b1100 /
17
0=
1A
0B
1>
0C
1D
0'
#258
b100 *
b100 #
b11111111111111111111111111111011 +
b1011 /
15
06
07
1=
1<
0;
1I
0J
0E
1F
0A
1B
1C
0D
1G
0H
1@
0K
1L
0%
1&
1'
#260
b101 *
b101 #
b11111111111111111111111111111010 +
b1010 /
17
0=
1A
0B
1>
0C
1D
0'
#262
b110 *
b110 #
b11111111111111111111111111111001 +
b1001 /
16
07
1=
0<
1E
0F
0A
1B
1C
0D
1?
0G
1H
0&
1'
#264
b111 *
b111 #
b11111111111111111111111111111000 +
b1000 /
17
0=
1A
0B
1>
0C
1D
0'
#266
b1000 *
b0 )
b11111111111111111111111111111000 *
b0 "
b1000 #
b1000 +
14
05
06
07
00
01
02
03
1A
1E
1I
0M
0N
1=
1<
1;
0:
09
#267
1.
#268
b11111111111111111111111111111001 *
b1001 #
b111 +
b111 /
17
0=
0A
1C
0D
0>
1'
1G
0H
0?
1&
1K
0L
0@
1%
0O
0$
#269
0.
#270
b11111111111111111111111111111010 *
b1010 #
b110 +
b110 /
16
07
1=
0<
0E
1A
0C
1D
1G
1&
1>
0'
#272
b11111111111111111111111111111011 *
b1011 #
b101 +
b101 /
17
0=
0A
1C
0D
0>
1'
0G
0&
#274
b11111111111111111111111111111100 *
b1100 #
b100 +
b100 /
15
06
07
1=
1<
0;
0I
1E
1A
0C
1D
0G
1K
1%
0&
1>
0'
1H
1?
#276
b11111111111111111111111111111101 *
b1101 #
b11 +
b11 /
17
0=
0A
1C
0D
0>
1'
1G
0H
0?
1&
0K
0%
#278
b11111111111111111111111111111110 *
b1110 #
b10 +
b10 /
16
07
1=
0<
0E
1A
0C
1D
1G
1&
1>
0'
#280
b11111111111111111111111111111111 *
b1111 #
b1 +
b1 /
17
0=
0A
1C
0D
0>
1'
0G
0&
#282
b0 *
b0 #
b0 +
b0 /
04
05
06
07
1=
1<
1;
1:
1M
1I
1E
1A
0C
1D
0G
0K
0O
0$
0%
0&
1>
0'
1H
1?
1L
1@
1P
19
#284
b1 *
b1 #
b11111111111111111111111111111111 +
b1111 /
17
0=
0A
1C
0D
0>
1'
1G
0H
0?
1&
1K
0L
0@
1%
1O
0P
09
1$
#286
b10 *
b10 #
b11111111111111111111111111111110 +
b1110 /
16
07
1=
0<
0E
1A
0C
1D
1G
1&
1>
0'
#288
b11 *
b11 #
b11111111111111111111111111111101 +
b1101 /
17
0=
0A
1C
0D
0>
1'
0G
0&
#290
b100 *
b100 #
b11111111111111111111111111111100 +
b1100 /
15
06
07
1=
1<
0;
0I
1E
1A
0C
1D
0G
1K
1%
0&
1>
0'
1H
1?
#292
b101 *
b101 #
b11111111111111111111111111111011 +
b1011 /
17
0=
0A
1C
0D
0>
1'
1G
0H
0?
1&
0K
0%
#294
b110 *
b110 #
b11111111111111111111111111111010 +
b1010 /
16
07
1=
0<
0E
1A
0C
1D
1G
1&
1>
0'
#296
b111 *
b111 #
b11111111111111111111111111111001 +
b1001 /
17
0=
0A
1C
0D
0>
1'
0G
0&
#298
b1000 *
b1 )
b11111111111111111111111111111000 *
b1 "
b1000 #
b1001 +
14
05
06
07
13
0A
1=
1<
1;
0:
0M
1I
1E
1B
1>
0K
1O
1$
0%
1H
1?
1L
1@
#299
1.
#300
b11111111111111111111111111111001 *
b1001 #
b1000 +
b1000 /
17
0=
1A
0B
1>
0C
1D
0'
#302
b11111111111111111111111111111010 *
b1010 #
b111 +
b111 /
16
07
1=
0<
0E
0A
1B
1C
0D
1G
0H
0?
1&
1'
1K
0L
0@
1%
0O
0$
#303
0.
#304
b11111111111111111111111111111011 *
b1011 #
b110 +
b110 /
17
0=
1A
0B
1>
0C
1D
0'
#306
b11111111111111111111111111111100 *
b1100 #
b101 +
b101 /
15
06
07
1=
1<
0;
0I
1E
0A
1B
1C
0D
0G
1H
1K
1%
1?
0&
1'
#308
b11111111111111111111111111111101 *
b1101 #
b100 +
b100 /
17
0=
1A
0B
1>
0C
1D
0'
#310
b11111111111111111111111111111110 *
b1110 #
b11 +
b11 /
16
07
1=
0<
0E
0A
1B
1C
0D
1G
0H
0?
1&
1'
0K
0%
#312
b11111111111111111111111111111111 *
b1111 #
b10 +
b10 /
17
0=
1A
0B
1>
0C
1D
0'
#314
b0 *
b0 #
b1 +
b1 /
04
05
06
07
1=
1<
1;
1:
1M
1I
1E
0A
1B
1C
0D
0G
1H
0K
0O
0$
0%
1?
0&
1'
1L
1@
1P
19
#316
b1 *
b1 #
b0 +
b0 /
17
0=
1A
0B
1>
0C
1D
0'
#318
b10 *
b10 #
b11111111111111111111111111111111 +
b1111 /
16
07
1=
0<
0E
0A
1B
1C
0D
1G
0H
0?
1&
1'
1K
0L
0@
1%
1O
0P
09
1$
#320
b11 *
b11 #
b11111111111111111111111111111110 +
b1110 /
17
0=
1A
0B
1>
0C
1D
0'
